{
	"process_id" : 16744,
	"version" : "2020.1.8f1",
	"app_path" : "C:/Program Files/Unity/Hub/Editor/2020.1.8f1/Editor/Unity.exe",
	"app_contents_path" : "C:/Program Files/Unity/Hub/Editor/2020.1.8f1/Editor/Data"
}